x0	y0	type	part[0]	part[1]	part[2]	part[3]	ID
0	0	1	1	0	0	0	11
0	0	1	0	0	0	0	11
0	1	2	0	0	0	0	0
0	2	3	0	0	0	0	0
0	3	3	0	0	0	0	0
0	4	4	0	0	0	0	0
0	5	5	0	0	0	0	0
0	6	6	0	0	0	0	0
0	7	7	0	0	0	0	0
1	18	2	3	0	0	0	114
1	19	1	3	0	0	0	114
1	20	2	2	0	0	0	114
2	7	2	3	0	0	0	101
2	8	1	7	0	0	0	101
2	9	1	3	0	0	0	101
2	10	1	3	0	0	0	101
2	11	1	3	0	0	0	101
2	12	2	2	0	0	0	101
2	17	1	8	0	0	0	114
2	18	2	3	0	0	0	111
2	19	1	3	0	0	0	111
2	20	2	2	0	0	0	111
2	21	1	2	0	0	0	114
3	6	1	8	0	0	0	102
3	7	2	3	0	0	0	113
3	8	1	3	0	0	0	113
3	9	1	3	0	0	0	113
3	10	1	3	0	0	0	113
3	11	1	3	0	0	0	113
3	12	2	2	0	0	0	113
3	13	1	6	0	0	0	101
3	16	2	4	0	0	0	112
3	17	2	4	0	0	0	111
3	21	2	1	0	0	0	111
3	22	2	1	0	0	0	114
4	5	1	8	0	0	0	102
4	6	1	8	0	0	0	113
4	7	2	3	0	0	0	115
4	8	1	3	0	0	0	114
4	9	1	3	0	0	0	114
4	10	1	3	0	0	0	114
4	11	1	3	0	0	0	114
4	12	2	2	0	0	0	114
4	13	1	2	0	0	0	113
4	14	1	6	0	0	0	101
4	16	1	1	0	0	0	112
4	17	1	5	0	0	0	111
4	21	1	1	0	0	0	113
4	22	1	1	0	0	0	114
5	4	1	4	0	0	0	102
5	5	1	8	0	0	0	113
5	6	1	8	0	0	0	115
5	7	2	3	0	0	0	130
5	8	1	3	0	0	0	130
5	9	2	2	0	0	0	130
5	13	1	2	0	0	0	114
5	14	1	2	0	0	0	113
5	15	1	2	0	0	0	101
5	16	1	1	0	0	0	112
5	17	1	1	0	0	0	111
5	20	7	4	0	0	0	0
5	21	2	8	0	0	0	113
5	22	2	8	0	0	0	114
6	3	1	4	0	0	0	102
6	4	1	4	0	0	0	113
6	5	1	8	0	0	0	115
6	6	1	4	0	0	0	130
6	7	2	3	0	0	0	131
6	8	1	3	0	0	0	131
6	9	2	2	0	0	0	131
6	10	1	2	0	0	0	130
6	13	7	5	0	0	0	129
6	14	1	2	0	0	0	114
6	15	1	2	0	0	0	113
6	16	1	1	0	0	0	112
6	17	1	1	0	0	0	111
6	18	1	7	0	0	0	101
6	19	2	7	0	0	0	101
6	20	1	4	0	0	0	113
6	21	1	4	0	0	0	114
7	2	2	4	0	0	0	102
7	3	1	4	0	0	0	113
7	4	1	4	0	0	0	115
7	5	1	4	0	0	0	130
7	6	1	4	0	0	0	131
7	10	1	2	0	0	0	131
7	11	1	2	0	0	0	130
7	13	1	1	0	0	0	129
7	15	1	2	0	0	0	114
7	16	1	1	0	0	0	112
7	17	1	1	0	0	0	111
7	18	1	7	0	0	0	113
7	19	2	7	0	0	0	113
7	20	1	4	0	0	0	114
8	2	1	4	0	0	0	113
8	3	1	4	0	0	0	115
8	4	2	4	0	0	0	130
8	5	2	4	0	0	0	131
8	10	7	5	0	0	0	128
8	11	2	1	0	0	0	131
8	12	2	1	0	0	0	130
8	13	1	1	0	0	0	129
8	16	1	1	0	0	0	112
8	17	1	1	0	0	0	111
8	18	1	3	0	0	0	114
8	19	2	7	0	0	0	114
9	1	1	4	0	0	0	113
9	2	1	4	0	0	0	115
9	4	1	1	0	0	0	130
9	5	1	1	0	0	0	131
9	10	1	1	0	0	0	128
9	11	1	1	0	0	0	131
9	12	1	1	0	0	0	130
9	13	1	1	0	0	0	129
9	16	1	1	0	0	0	112
9	17	1	1	0	0	0	111
10	0	2	4	0	0	0	113
10	1	2	4	0	0	0	115
10	2	1	1	0	0	0	102
10	4	1	1	0	0	0	130
10	5	1	1	0	0	0	131
10	10	1	1	0	0	0	128
10	11	3	5	1	0	0	20
10	12	1	1	0	0	0	130
10	13	1	1	0	0	0	129
10	16	1	1	0	0	0	112
10	17	1	1	0	0	0	111
11	0	1	1	0	0	0	116
11	1	1	1	0	0	0	115
11	2	1	1	0	0	0	102
11	4	3	8	1	0	0	1
11	5	3	5	1	0	0	2
11	10	1	1	0	0	0	128
11	11	3	8	1	0	0	16
11	12	3	1	5	0	0	21
11	13	1	1	0	0	0	129
11	16	1	1	0	0	0	112
11	17	1	1	0	0	0	111
12	0	1	1	0	0	0	116
12	1	1	1	0	0	0	115
12	2	1	1	0	0	0	102
12	3	2	4	0	0	0	105
12	4	1	1	0	0	0	106
12	5	1	1	0	0	0	107
12	6	2	1	0	0	0	108
12	10	3	4	5	0	0	15
12	11	1	1	0	0	0	124
12	12	3	5	1	0	0	14
12	13	1	1	0	0	0	129
12	16	1	1	0	0	0	112
12	17	1	1	0	0	0	111
13	0	1	1	0	0	0	116
13	1	1	1	0	0	0	115
13	2	1	1	0	0	0	102
13	3	1	1	0	0	0	105
13	4	1	1	0	0	0	106
13	5	1	1	0	0	0	107
13	6	1	1	0	0	0	108
13	10	1	1	0	0	0	123
13	11	1	1	0	0	0	124
13	12	1	1	0	0	0	125
13	13	4	1	0	0	0	13
13	16	1	1	0	0	0	112
13	17	1	1	0	0	0	111
14	0	1	1	0	0	0	116
14	1	1	1	0	0	0	115
14	2	1	1	0	0	0	102
14	3	1	1	0	0	0	105
14	4	1	1	0	0	0	106
14	5	1	1	0	0	0	107
14	6	1	1	0	0	0	108
14	10	1	1	0	0	0	123
14	11	1	1	0	0	0	124
14	12	1	1	0	0	0	125
14	13	1	1	0	0	0	126
14	14	2	1	0	0	0	127
14	16	1	1	0	0	0	112
14	17	1	1	0	0	0	111
15	0	1	1	0	0	0	116
15	1	1	1	0	0	0	115
15	2	1	1	0	0	0	103
15	3	1	1	0	0	0	105
15	4	1	1	0	0	0	106
15	5	1	1	0	0	0	107
15	6	1	1	0	0	0	108
15	10	1	1	0	0	0	123
15	11	1	1	0	0	0	124
15	12	1	1	0	0	0	125
15	13	1	1	0	0	0	126
15	14	1	1	0	0	0	127
15	16	1	1	0	0	0	112
15	17	1	1	0	0	0	111
16	0	1	1	0	0	0	116
16	1	1	1	0	0	0	115
16	2	1	1	0	0	0	103
16	3	1	1	0	0	0	105
16	4	1	1	0	0	0	106
16	5	1	1	0	0	0	107
16	6	1	1	0	0	0	108
16	10	1	1	0	0	0	123
16	11	1	1	0	0	0	124
16	12	1	1	0	0	0	125
16	13	1	1	0	0	0	126
16	14	1	1	0	0	0	127
16	16	1	1	0	0	0	112
16	17	1	1	0	0	0	111
17	0	1	1	0	0	0	116
17	1	1	1	0	0	0	115
17	2	1	1	0	0	0	103
17	3	1	1	0	0	0	105
17	4	1	1	0	0	0	106
17	5	1	1	0	0	0	107
17	6	1	1	0	0	0	108
17	10	1	1	0	0	0	123
17	11	1	1	0	0	0	124
17	12	1	1	0	0	0	125
17	13	1	1	0	0	0	126
17	14	1	1	0	0	0	127
17	16	1	1	0	0	0	112
17	17	1	1	0	0	0	111
18	0	1	1	0	0	0	116
18	1	1	1	0	0	0	115
18	2	1	1	0	0	0	103
18	3	1	1	0	0	0	105
18	4	1	1	0	0	0	106
18	5	1	1	0	0	0	107
18	6	1	1	0	0	0	108
18	10	1	1	0	0	0	123
18	11	1	1	0	0	0	124
18	12	1	1	0	0	0	125
18	13	1	1	0	0	0	126
18	14	1	1	0	0	0	127
18	16	1	1	0	0	0	112
18	17	1	1	0	0	0	111
19	0	1	1	0	0	0	116
19	1	1	1	0	0	0	115
19	2	1	1	0	0	0	103
19	3	1	1	0	0	0	105
19	4	1	1	0	0	0	106
19	5	1	1	0	0	0	107
19	6	1	1	0	0	0	108
19	10	1	1	0	0	0	123
19	11	1	1	0	0	0	124
19	12	1	1	0	0	0	125
19	13	1	1	0	0	0	126
19	14	1	1	0	0	0	127
19	16	1	1	0	0	0	112
19	17	1	1	0	0	0	111
20	0	1	1	0	0	0	116
20	1	1	1	0	0	0	115
20	2	1	1	0	0	0	103
20	3	1	1	0	0	0	105
20	4	1	1	0	0	0	106
20	5	1	1	0	0	0	107
20	6	1	1	0	0	0	108
20	10	1	1	0	0	0	123
20	11	1	1	0	0	0	124
20	12	1	1	0	0	0	125
20	13	1	1	0	0	0	126
20	14	1	1	0	0	0	127
20	16	1	1	0	0	0	112
20	17	1	1	0	0	0	111
21	0	1	1	0	0	0	116
21	1	1	1	0	0	0	115
21	2	1	1	0	0	0	103
21	3	1	1	0	0	0	105
21	4	1	1	0	0	0	106
21	5	1	1	0	0	0	107
21	6	1	1	0	0	0	108
21	10	1	1	0	0	0	123
21	11	1	1	0	0	0	124
21	12	1	1	0	0	0	125
21	13	1	1	0	0	0	126
21	14	1	1	0	0	0	127
21	16	1	1	0	0	0	112
21	17	1	1	0	0	0	111
22	0	1	1	0	0	0	116
22	1	1	1	0	0	0	115
22	2	1	1	0	0	0	103
22	3	1	1	0	0	0	105
22	4	1	1	0	0	0	106
22	5	1	1	0	0	0	107
22	6	1	1	0	0	0	108
22	10	1	1	0	0	0	123
22	11	1	1	0	0	0	124
22	12	1	1	0	0	0	125
22	13	1	1	0	0	0	126
22	14	1	1	0	0	0	127
22	16	1	1	0	0	0	112
22	17	1	1	0	0	0	109
23	0	1	1	0	0	0	116
23	1	1	1	0	0	0	115
23	2	1	1	0	0	0	103
23	3	1	1	0	0	0	105
23	4	1	1	0	0	0	106
23	5	1	1	0	0	0	107
23	6	1	1	0	0	0	108
23	10	1	1	0	0	0	123
23	11	1	1	0	0	0	124
23	12	1	1	0	0	0	125
23	13	1	1	0	0	0	126
23	14	1	1	0	0	0	127
23	16	1	1	0	0	0	112
23	17	1	1	0	0	0	109
24	0	1	1	0	0	0	116
24	1	1	1	0	0	0	115
24	2	1	1	0	0	0	103
24	3	1	1	0	0	0	105
24	4	1	1	0	0	0	106
24	5	1	1	0	0	0	107
24	6	1	1	0	0	0	108
24	10	1	1	0	0	0	123
24	11	1	1	0	0	0	124
24	12	1	1	0	0	0	125
24	13	1	1	0	0	0	126
24	14	1	1	0	0	0	127
24	16	1	1	0	0	0	112
24	17	1	1	0	0	0	109
25	0	1	1	0	0	0	116
25	1	1	1	0	0	0	115
25	2	1	1	0	0	0	103
25	3	1	1	0	0	0	105
25	4	1	1	0	0	0	106
25	5	1	1	0	0	0	107
25	6	1	1	0	0	0	108
25	10	1	1	0	0	0	123
25	11	1	1	0	0	0	124
25	12	1	1	0	0	0	125
25	13	1	1	0	0	0	126
25	14	2	8	0	0	0	127
25	16	1	1	0	0	0	110
25	17	1	1	0	0	0	109
26	0	1	1	0	0	0	116
26	1	1	1	0	0	0	115
26	2	1	1	0	0	0	103
26	3	3	8	1	0	0	3
26	4	1	1	0	0	0	106
26	5	1	1	0	0	0	107
26	6	1	1	0	0	0	108
26	10	1	1	0	0	0	123
26	11	1	1	0	0	0	124
26	12	1	1	0	0	0	125
26	13	4	16	0	0	0	11
26	16	1	1	0	0	0	110
26	17	1	1	0	0	0	109
27	0	1	1	0	0	0	116
27	1	1	1	0	0	0	115
27	2	3	4	5	0	0	19
27	3	2	5	0	0	0	3
27	4	1	1	0	0	0	106
27	5	1	1	0	0	0	107
27	6	2	8	0	0	0	108
27	10	2	5	0	0	0	123
27	11	1	1	0	0	0	124
27	12	3	4	5	0	0	9
27	13	3	5	1	0	0	17
27	16	1	1	0	0	0	110
27	17	1	1	0	0	0	109
28	0	1	1	0	0	0	116
28	1	1	1	0	0	0	117
28	2	1	1	0	0	0	104
28	4	3	1	5	0	0	4
28	5	3	4	5	0	0	5
28	11	3	1	5	0	0	7
28	12	3	8	1	0	0	8
28	13	1	1	0	0	0	17
28	14	1	2	0	0	0	121
28	16	1	1	0	0	0	110
28	17	1	1	0	0	0	109
29	0	1	1	0	0	0	116
29	1	1	1	0	0	0	117
29	2	1	1	0	0	0	104
29	4	1	1	0	0	0	109
29	5	1	1	0	0	0	110
29	11	3	4	5	0	0	6
29	12	1	1	0	0	0	118
29	13	3	5	1	0	0	18
29	15	2	1	0	0	0	121
29	16	1	1	0	0	0	110
29	17	1	1	0	0	0	109
30	0	1	1	0	0	0	116
30	1	1	1	0	0	0	117
30	2	1	1	0	0	0	104
30	4	1	1	0	0	0	109
30	5	1	1	0	0	0	110
30	11	1	1	0	0	0	117
30	12	1	1	0	0	0	118
30	13	1	1	0	0	0	119
30	14	2	1	0	0	0	120
30	15	1	1	0	0	0	121
30	16	1	1	0	0	0	110
30	17	1	1	0	0	0	109
31	0	1	1	0	0	0	116
31	1	1	1	0	0	0	117
31	2	1	1	0	0	0	104
31	4	1	1	0	0	0	109
31	5	1	1	0	0	0	110
31	11	1	1	0	0	0	117
31	12	1	1	0	0	0	118
31	13	1	1	0	0	0	119
31	14	1	1	0	0	0	120
31	15	1	1	0	0	0	121
31	16	2	8	0	0	0	110
31	17	2	8	0	0	0	109
32	0	1	1	0	0	0	116
32	1	1	1	0	0	0	117
32	2	1	1	0	0	0	104
32	4	1	1	0	0	0	109
32	5	1	1	0	0	0	110
32	11	1	1	0	0	0	117
32	12	1	1	0	0	0	118
32	13	1	1	0	0	0	119
32	14	1	1	0	0	0	120
32	15	1	1	0	0	0	121
32	16	1	4	0	0	0	109
33	0	1	1	0	0	0	118
33	1	1	1	0	0	0	117
33	2	1	1	0	0	0	104
33	4	2	5	0	0	0	109
33	5	2	5	0	0	0	110
33	11	1	1	0	0	0	117
33	12	1	1	0	0	0	118
33	13	1	1	0	0	0	119
33	14	1	1	0	0	0	120
33	15	1	1	0	0	0	121
34	0	2	5	0	0	0	118
34	1	2	5	0	0	0	117
34	2	7	1	0	0	0	0
34	5	1	2	0	0	0	109
34	6	1	2	0	0	0	110
34	11	2	8	0	0	0	117
34	12	2	8	0	0	0	118
34	13	1	1	0	0	0	119
34	14	1	1	0	0	0	120
34	15	1	1	0	0	0	121
35	1	1	2	0	0	0	118
35	2	1	2	0	0	0	117
35	6	1	6	0	0	0	109
35	7	2	6	0	0	0	110
35	8	1	3	0	0	0	110
35	9	1	3	0	0	0	110
35	10	1	4	0	0	0	117
35	11	1	4	0	0	0	118
35	12	2	7	0	0	0	110
35	13	1	1	0	0	0	119
35	14	1	1	0	0	0	120
35	15	1	1	0	0	0	121
36	2	1	2	0	0	0	118
36	3	1	2	0	0	0	117
36	7	2	6	0	0	0	109
36	8	1	3	0	0	0	109
36	9	1	4	0	0	0	117
36	10	1	4	0	0	0	118
36	11	1	7	0	0	0	109
36	12	2	7	0	0	0	109
36	13	1	1	0	0	0	119
36	14	1	1	0	0	0	120
36	15	1	1	0	0	0	121
37	3	1	2	0	0	0	118
37	4	2	6	0	0	0	117
37	5	1	3	0	0	0	117
37	6	1	3	0	0	0	117
37	7	1	3	0	0	0	117
37	8	2	7	0	0	0	117
37	9	1	4	0	0	0	118
37	13	7	1	0	0	0	119
37	14	7	1	0	0	0	120
37	15	7	1	0	0	0	121
38	4	2	6	0	0	0	118
38	5	1	3	0	0	0	118
38	6	1	3	0	0	0	118
38	7	1	3	0	0	0	118
38	8	2	7	0	0	0	118
